^D:\AN III\PG\OPENGLPROJECT\OPENGLPROJECT\CAMERA.CPP|D:\AN III\PG\OPENGLPROJECT\OPENGLPROJECT\MAIN.CPP|D:\AN III\PG\OPENGLPROJECT\OPENGLPROJECT\MESH.CPP|D:\AN III\PG\OPENGLPROJECT\OPENGLPROJECT\MODEL3D.CPP|D:\AN III\PG\OPENGLPROJECT\OPENGLPROJECT\SHADER.CPP|D:\AN III\PG\OPENGLPROJECT\OPENGLPROJECT\STB_IMAGE.CPP|D:\AN III\PG\OPENGLPROJECT\OPENGLPROJECT\TINY_OBJ_LOADER.CPP
D:\AN III\PG\OPENGLPROJECT\OPENGLPROJECT\X64\DEBUG\VC143.PDB
D:\AN III\PG\OPENGLPROJECT\OPENGLPROJECT\X64\DEBUG\VC143.IDB
D:\AN III\PG\OPENGLPROJECT\OPENGLPROJECT\X64\DEBUG\WINDOW.OBJ
D:\AN III\PG\OPENGLPROJECT\OPENGLPROJECT\X64\DEBUG\TINY_OBJ_LOADER.OBJ
D:\AN III\PG\OPENGLPROJECT\OPENGLPROJECT\X64\DEBUG\STB_IMAGE.OBJ
D:\AN III\PG\OPENGLPROJECT\OPENGLPROJECT\X64\DEBUG\SHADER.OBJ
D:\AN III\PG\OPENGLPROJECT\OPENGLPROJECT\X64\DEBUG\MODEL3D.OBJ
D:\AN III\PG\OPENGLPROJECT\OPENGLPROJECT\X64\DEBUG\MESH.OBJ
D:\AN III\PG\OPENGLPROJECT\OPENGLPROJECT\X64\DEBUG\MAIN.OBJ
D:\AN III\PG\OPENGLPROJECT\OPENGLPROJECT\X64\DEBUG\CAMERA.OBJ
^D:\AN III\PG\OPENGLPROJECT\OPENGLPROJECT\MESH.CPP
D:\AN III\PG\OPENGLPROJECT\OPENGLPROJECT\X64\DEBUG\VC143.PDB
^D:\AN III\PG\OPENGLPROJECT\OPENGLPROJECT\MODEL3D.CPP
D:\AN III\PG\OPENGLPROJECT\OPENGLPROJECT\X64\DEBUG\VC143.PDB
^D:\AN III\PG\OPENGLPROJECT\OPENGLPROJECT\SHADER.CPP
D:\AN III\PG\OPENGLPROJECT\OPENGLPROJECT\X64\DEBUG\VC143.PDB
^D:\AN III\PG\OPENGLPROJECT\OPENGLPROJECT\STB_IMAGE.CPP
D:\AN III\PG\OPENGLPROJECT\OPENGLPROJECT\X64\DEBUG\VC143.PDB
^D:\AN III\PG\OPENGLPROJECT\OPENGLPROJECT\TINY_OBJ_LOADER.CPP
D:\AN III\PG\OPENGLPROJECT\OPENGLPROJECT\X64\DEBUG\VC143.PDB
^D:\AN III\PG\OPENGLPROJECT\OPENGLPROJECT\SKYBOX.CPP
D:\AN III\PG\OPENGLPROJECT\OPENGLPROJECT\X64\DEBUG\VC143.PDB
D:\AN III\PG\OPENGLPROJECT\OPENGLPROJECT\X64\DEBUG\VC143.IDB
D:\AN III\PG\OPENGLPROJECT\OPENGLPROJECT\X64\DEBUG\SKYBOX.OBJ
^D:\AN III\PG\OPENGLPROJECT\OPENGLPROJECT\CAMERA.CPP|D:\AN III\PG\OPENGLPROJECT\OPENGLPROJECT\MAIN.CPP
D:\AN III\PG\OPENGLPROJECT\OPENGLPROJECT\X64\DEBUG\VC143.PDB
D:\AN III\PG\OPENGLPROJECT\OPENGLPROJECT\X64\DEBUG\VC143.IDB
D:\AN III\PG\OPENGLPROJECT\OPENGLPROJECT\X64\DEBUG\MAIN.OBJ
D:\AN III\PG\OPENGLPROJECT\OPENGLPROJECT\X64\DEBUG\CAMERA.OBJ
^D:\AN III\PG\OPENGLPROJECT\OPENGLPROJECT\CAMERA.CPP
D:\AN III\PG\OPENGLPROJECT\OPENGLPROJECT\X64\DEBUG\VC143.PDB
D:\AN III\PG\OPENGLPROJECT\OPENGLPROJECT\X64\DEBUG\VC143.IDB
D:\AN III\PG\OPENGLPROJECT\OPENGLPROJECT\X64\DEBUG\CAMERA.OBJ
^D:\AN III\PG\OPENGLPROJECT\OPENGLPROJECT\MAIN.CPP|D:\AN III\PG\OPENGLPROJECT\OPENGLPROJECT\WINDOW.CPP
D:\AN III\PG\OPENGLPROJECT\OPENGLPROJECT\X64\DEBUG\VC143.PDB
D:\AN III\PG\OPENGLPROJECT\OPENGLPROJECT\X64\DEBUG\VC143.IDB
D:\AN III\PG\OPENGLPROJECT\OPENGLPROJECT\X64\DEBUG\MAIN.OBJ
^D:\AN III\PG\OPENGLPROJECT\OPENGLPROJECT\WINDOW.CPP
D:\AN III\PG\OPENGLPROJECT\OPENGLPROJECT\X64\DEBUG\VC143.PDB
D:\AN III\PG\OPENGLPROJECT\OPENGLPROJECT\X64\DEBUG\VC143.IDB
D:\AN III\PG\OPENGLPROJECT\OPENGLPROJECT\X64\DEBUG\WINDOW.OBJ
^D:\AN III\PG\OPENGLPROJECT\OPENGLPROJECT\MAIN.CPP
D:\AN III\PG\OPENGLPROJECT\OPENGLPROJECT\X64\DEBUG\VC143.PDB
D:\AN III\PG\OPENGLPROJECT\OPENGLPROJECT\X64\DEBUG\VC143.IDB
D:\AN III\PG\OPENGLPROJECT\OPENGLPROJECT\X64\DEBUG\MAIN.OBJ
